{
    "institute_id": "ERCSB",
    "local_db": {
        "host": "127.0.0.1",
        "database": "CGIS",
        "user": "root",
        "password": "whdgkqrhks101"
    },
    "biobank": {
        "host": "203.255.191.19",
        "url": {
            "http": "http://203.255.191.19",
            "https": "https://203.255.191.19"
        }
    },
    "community": {
        "url": "http://203.255.191.19/community"
    },
    "galaxy": {
        "host": "203.255.191.225",
        "url": {
            "http": "http://203.255.191.225"
        }
    }
}
