{
    "name": "ercsb",
    "version": "2016.8.1",
    "private": true,
    "scripts": {
        "start": "nodemon ./bin/www",
        "test": "mocha"
    },
    "dependencies": {
        "bcrypt-nodejs": "0.0.3",
        "body-parser": "~1.12.4",
        "cluster": "^0.7.7",
        "connect-flash": "^0.1.1",
        "connect-mongo": "^0.8.1",
        "cookie-parser": "~1.3.5",
        "debug": "~2.2.0",
        "express": "~4.12.4",
        "express-authorization": "^1.0.0",
        "express-session": "^1.11.3",
        "fs": "0.0.2",
        "helmet": "^0.14.0",
        "jade": "^1.9.2",
        "moment": "^2.13.0",
        "mongoose": "^4.0.6",
        "morgan": "~1.5.3",
        "multer": "^1.3.0",
        "mysql": "^2.7.0",
        "nodemailer": "^1.4.0",
        "passport": "^0.2.2",
        "passport-local": "^1.0.0",
        "querystring": "^0.2.0",
        "serve-favicon": "~2.2.1",
        "tsv": "^0.2.0",
        "validator": "^3.40.1",
        "xls-to-json": "^0.3.2"
    },
    "devDependencies": {
        "async": "^1.5.0",
        "multiline": "^1.0.2",
        "supertest": "^1.2.0",
        "util": "^0.10.3"
    }
}
