analysis_id	vital_status	gender	race	ethnicity	histological_type	anatomic_neoplasm_subdivision	history_of_neoadjuvant_treatment	other_dx	radiation_therapy	primary_therapy_outcome_success	followup_treatment_success	age_at_initial_pathologic_diagnosis	days_to_last_followup	days_to_death	lost_follow_up	patient_id
ERCSBGBM1606150001	dead	female	asian	korean	untreated primary (de novo) gbm	NA	no	no	yes	progressive disease	NA	21	815	1010	Yes	1234
ERCSBGBM1606150002	alive	male	asian	korean	treated primary gbm	NA	yes	NA	yes	complete remission/response	stable disease	24	690	NA	No	5678
